,,s,s,s
Time Step,Wall Time,Step Size,Simulation Time,CPU Time
      1,2021-06-23T10:38:04.035+02:00,   0.183E+00,   0.18257,   0.102E+02
      2,2021-06-23T10:38:04.071+02:00,   0.183E+00,   0.36515,   0.104E+02
      3,2021-06-23T10:38:34.415+02:00,   0.183E+00,   0.54772,   0.420E+02
      4,2021-06-23T10:40:40.678+02:00,   0.990E-02,   0.55762,   0.167E+03
      5,2021-06-23T10:40:49.773+02:00,   0.620E-02,   0.56381,   0.177E+03
      6,2021-06-23T10:40:56.633+02:00,   0.620E-02,   0.57001,   0.185E+03
      7,2021-06-23T10:41:01.164+02:00,   0.682E-02,   0.57683,   0.191E+03
      8,2021-06-23T10:41:09.357+02:00,   0.750E-02,   0.58432,   0.201E+03
      9,2021-06-23T10:41:14.950+02:00,   0.825E-02,   0.59257,   0.208E+03
     10,2021-06-23T10:41:22.081+02:00,   0.907E-02,   0.60164,   0.216E+03
     20,2021-06-23T10:43:31.130+02:00,   0.194E-01,   0.75464,   0.359E+03
     30,2021-06-23T10:44:14.541+02:00,   0.185E-01,   0.93476,   0.415E+03
     34,2021-06-23T10:44:29.495+02:00,   0.969E-02,   1.00000,   0.436E+03
