,,s,s,s
Time Step,Wall Time,Step Size,Simulation Time,CPU Time
      1,2021-06-27T23:14:38.157+02:00,   0.100E-01,   0.01000,   0.397E+01
      2,2021-06-27T23:14:38.175+02:00,   0.100E-01,   0.02000,   0.402E+01
      3,2021-06-27T23:14:38.195+02:00,   0.100E-01,   0.03000,   0.414E+01
      4,2021-06-27T23:14:38.211+02:00,   0.100E-01,   0.04000,   0.420E+01
      5,2021-06-27T23:14:38.227+02:00,   0.100E-01,   0.05000,   0.427E+01
      6,2021-06-27T23:14:38.246+02:00,   0.100E-01,   0.06000,   0.433E+01
      7,2021-06-27T23:14:38.265+02:00,   0.100E-01,   0.07000,   0.439E+01
      8,2021-06-27T23:14:38.288+02:00,   0.100E-01,   0.08000,   0.452E+01
      9,2021-06-27T23:14:38.306+02:00,   0.100E-01,   0.09000,   0.458E+01
     10,2021-06-27T23:14:38.329+02:00,   0.100E-01,   0.10000,   0.464E+01
     20,2021-06-27T23:14:38.532+02:00,   0.100E-01,   0.20000,   0.545E+01
     30,2021-06-27T23:14:38.730+02:00,   0.100E-01,   0.30000,   0.627E+01
     40,2021-06-27T23:14:38.912+02:00,   0.100E-01,   0.40000,   0.702E+01
     50,2021-06-27T23:14:39.082+02:00,   0.100E-01,   0.50000,   0.770E+01
     60,2021-06-27T23:14:39.239+02:00,   0.100E-01,   0.60000,   0.833E+01
     70,2021-06-27T23:14:39.404+02:00,   0.100E-01,   0.70000,   0.895E+01
     80,2021-06-27T23:14:39.589+02:00,   0.100E-01,   0.80000,   0.970E+01
     90,2021-06-27T23:14:39.767+02:00,   0.100E-01,   0.90000,   0.104E+02
    100,2021-06-27T23:14:39.933+02:00,   0.100E-01,   1.00000,   0.111E+02
    200,2021-06-27T23:14:41.735+02:00,   0.100E-01,   2.00000,   0.182E+02
    300,2021-06-27T23:14:43.504+02:00,   0.100E-01,   3.00000,   0.254E+02
    400,2021-06-27T23:14:45.332+02:00,   0.100E-01,   4.00000,   0.327E+02
    500,2021-06-27T23:14:47.103+02:00,   0.100E-01,   5.00000,   0.397E+02
    600,2021-06-27T23:14:48.996+02:00,   0.100E-01,   6.00000,   0.472E+02
    700,2021-06-27T23:14:50.776+02:00,   0.100E-01,   7.00000,   0.543E+02
    800,2021-06-27T23:14:52.611+02:00,   0.100E-01,   8.00000,   0.616E+02
    900,2021-06-27T23:14:54.302+02:00,   0.100E-01,   9.00000,   0.684E+02
   1000,2021-06-27T23:14:55.987+02:00,   0.100E-01,  10.00000,   0.751E+02
