<?xml version="1.0" encoding="utf-8" ?>
<kml xmlns="http://www.opengis.net/kml/2.2"  xmlns:gx="http://www.google.com/kml/ext/2.2">
<Document>
<Folder><name>Aloha Threat Zones</name>
 <Placemark>
  <name>Yellow Wind Direction Confidence Lines 5500 ppm = AEGL-1 (60 min)</name>
  <ExtendedData><Data name="MarplotID"><value>AAAAAAAAAAAAAA02</value></Data></ExtendedData>
  <description><![CDATA[<b>Time:</b> February 16, 2007  1409 hours CST<br><b>Chemical Name:</b> PROPANE<br><b>Wind:</b> 18 miles/hour from NNW at 3 meters<br><small><br></small><b>THREAT ZONE:</b><br><span style="background-color: rgb(255, 0, 0);">&nbsp;&nbsp;&nbsp;&nbsp;</span>&nbsp;Red   : 63 meters --- (33000 ppm = AEGL-3 [60 min])<br><span style="background-color: rgb(255, 153, 0);">&nbsp;&nbsp;&nbsp;&nbsp;</span>&nbsp;Orange: 105 meters --- (17000 ppm = AEGL-2 [60 min])<br><span style="background-color: rgb(255, 255, 0);">&nbsp;&nbsp;&nbsp;&nbsp;</span>&nbsp;Yellow: 227 meters --- (5500 ppm = AEGL-1 [60 min])<br><br><br>Model: ALOHA Heavy Gas <br>]]></description>
  <drawOrder>1</drawOrder><Polygon><gx:drawOrder>1</gx:drawOrder><outerBoundaryIs><LinearRing><coordinates>-101.879679,35.955151 -101.879698,35.955041 -101.879704,35.954927 -101.879699,35.954811 -101.879684,35.954692 -101.879662,35.954569 -101.879633,35.954440 -101.879597,35.954306 -101.879555,35.954166 -101.879507,35.954018 -101.879454,35.953865 -101.879388,35.953706 -101.879315,35.953538 -101.879224,35.953364 -101.879098,35.953185 -101.879036,35.953173 -101.878992,35.953182 -101.878949,35.953192 -101.878906,35.953202 -101.878862,35.953212 -101.878820,35.953224 -101.878778,35.953236 -101.878735,35.953249 -101.878693,35.953262 -101.878642,35.953279 -101.878601,35.953294 -101.878560,35.953309 -101.878518,35.953325 -101.878478,35.953341 -101.878438,35.953358 -101.878399,35.953375 -101.878360,35.953393 -101.878320,35.953412 -101.878288,35.953457 -101.878355,35.953656 -101.878444,35.953830 -101.878537,35.953991 -101.878631,35.954142 -101.878726,35.954281 -101.878821,35.954412 -101.878914,35.954535 -101.879006,35.954650 -101.879098,35.954758 -101.879189,35.954858 -101.879284,35.954951 -101.879382,35.955035 -101.879485,35.955112 -101.879595,35.955179 -101.879679,35.955151 </coordinates></LinearRing></outerBoundaryIs></Polygon>
  <Style><LineStyle><color>ff00ffff</color><width>2</width></LineStyle>  <PolyStyle><fill>0</fill><color>5500ffff</color></PolyStyle></Style>
 </Placemark>
 <Placemark>
  <name>Yellow Threat Zone 5500 ppm = AEGL-1 (60 min)</name>
  <ExtendedData><Data name="MarplotID"><value>AAAAAAAAAAAAAA01</value></Data></ExtendedData>
  <description><![CDATA[<b>Time:</b> February 16, 2007  1409 hours CST<br><b>Chemical Name:</b> PROPANE<br><b>Wind:</b> 18 miles/hour from NNW at 3 meters<br><small><br></small><b>THREAT ZONE:</b><br><span style="background-color: rgb(255, 0, 0);">&nbsp;&nbsp;&nbsp;&nbsp;</span>&nbsp;Red   : 63 meters --- (33000 ppm = AEGL-3 [60 min])<br><span style="background-color: rgb(255, 153, 0);">&nbsp;&nbsp;&nbsp;&nbsp;</span>&nbsp;Orange: 105 meters --- (17000 ppm = AEGL-2 [60 min])<br><span style="background-color: rgb(255, 255, 0);">&nbsp;&nbsp;&nbsp;&nbsp;</span>&nbsp;Yellow: 227 meters --- (5500 ppm = AEGL-1 [60 min])<br><br><br>Model: ALOHA Heavy Gas <br>]]></description>
  <drawOrder>2</drawOrder><Polygon><gx:drawOrder>2</gx:drawOrder><outerBoundaryIs><LinearRing><coordinates>-101.879593,35.955174 -101.879594,35.955177 -101.879596,35.955180 -101.879599,35.955183 -101.879601,35.955185 -101.879604,35.955187 -101.879606,35.955189 -101.879610,35.955191 -101.879613,35.955193 -101.879618,35.955194 -101.879621,35.955195 -101.879624,35.955195 -101.879629,35.955196 -101.879632,35.955196 -101.879636,35.955196 -101.879640,35.955196 -101.879644,35.955195 -101.879648,35.955195 -101.879651,35.955194 -101.879655,35.955193 -101.879659,35.955191 -101.879662,35.955189 -101.879664,35.955187 -101.879668,35.955185 -101.879670,35.955183 -101.879672,35.955180 -101.879674,35.955177 -101.879675,35.955174 -101.879676,35.955171 -101.879678,35.955168 -101.879679,35.955165 -101.879679,35.955162 -101.879679,35.955159 -101.879679,35.955156 -101.879678,35.955152 -101.879676,35.955150 -101.879675,35.955147 -101.879675,35.955034 -101.879662,35.954922 -101.879636,35.954807 -101.879601,35.954691 -101.879557,35.954571 -101.879506,35.954447 -101.879448,35.954319 -101.879383,35.954185 -101.879308,35.954045 -101.879228,35.953900 -101.879136,35.953748 -101.879033,35.953592 -101.878912,35.953430 -101.878756,35.953267 -101.878693,35.953262 -101.878667,35.953271 -101.878642,35.953279 -101.878601,35.953320 -101.878632,35.953523 -101.878689,35.953707 -101.878753,35.953877 -101.878820,35.954036 -101.878891,35.954185 -101.878960,35.954326 -101.879031,35.954459 -101.879101,35.954583 -101.879175,35.954700 -101.879247,35.954810 -101.879324,35.954913 -101.879406,35.955008 -101.879495,35.955095 -101.879593,35.955174 </coordinates></LinearRing></outerBoundaryIs></Polygon>
  <Style><LineStyle><color>ff00ffff</color><width>3</width></LineStyle>  <PolyStyle><fill>1</fill><color>5500ffff</color></PolyStyle></Style>
 </Placemark>
 <Placemark>
  <name>Orange Threat Zone 17000 ppm = AEGL-2 (60 min)</name>
  <ExtendedData><Data name="MarplotID"><value>AAAAAAAAAAAAAA03</value></Data></ExtendedData>
  <description><![CDATA[<b>Time:</b> February 16, 2007  1409 hours CST<br><b>Chemical Name:</b> PROPANE<br><b>Wind:</b> 18 miles/hour from NNW at 3 meters<br><small><br></small><b>THREAT ZONE:</b><br><span style="background-color: rgb(255, 0, 0);">&nbsp;&nbsp;&nbsp;&nbsp;</span>&nbsp;Red   : 63 meters --- (33000 ppm = AEGL-3 [60 min])<br><span style="background-color: rgb(255, 153, 0);">&nbsp;&nbsp;&nbsp;&nbsp;</span>&nbsp;Orange: 105 meters --- (17000 ppm = AEGL-2 [60 min])<br><span style="background-color: rgb(255, 255, 0);">&nbsp;&nbsp;&nbsp;&nbsp;</span>&nbsp;Yellow: 227 meters --- (5500 ppm = AEGL-1 [60 min])<br><br><br>Model: ALOHA Heavy Gas <br>]]></description>
  <drawOrder>3</drawOrder><Polygon><gx:drawOrder>3</gx:drawOrder><outerBoundaryIs><LinearRing><coordinates>-101.879593,35.955174 -101.879594,35.955177 -101.879596,35.955180 -101.879599,35.955183 -101.879601,35.955185 -101.879604,35.955187 -101.879606,35.955189 -101.879610,35.955191 -101.879613,35.955193 -101.879618,35.955194 -101.879621,35.955195 -101.879624,35.955195 -101.879629,35.955196 -101.879632,35.955196 -101.879636,35.955196 -101.879640,35.955196 -101.879644,35.955195 -101.879648,35.955195 -101.879651,35.955194 -101.879655,35.955193 -101.879659,35.955191 -101.879662,35.955189 -101.879664,35.955187 -101.879668,35.955185 -101.879670,35.955183 -101.879672,35.955180 -101.879674,35.955177 -101.879675,35.955174 -101.879676,35.955171 -101.879678,35.955168 -101.879679,35.955165 -101.879679,35.955162 -101.879679,35.955159 -101.879679,35.955156 -101.879678,35.955152 -101.879676,35.955150 -101.879675,35.955147 -101.879665,35.955038 -101.879643,35.954928 -101.879606,35.954818 -101.879557,35.954706 -101.879500,35.954591 -101.879428,35.954473 -101.879341,35.954355 -101.879234,35.954276 -101.879189,35.954291 -101.879146,35.954306 -101.879138,35.954423 -101.879179,35.954557 -101.879231,35.954681 -101.879292,35.954795 -101.879355,35.954902 -101.879425,35.955001 -101.879505,35.955092 -101.879593,35.955174 </coordinates></LinearRing></outerBoundaryIs></Polygon>
  <Style><LineStyle><color>ff0080ff</color><width>3</width></LineStyle>  <PolyStyle><fill>1</fill><color>550080ff</color></PolyStyle></Style>
 </Placemark>
 <Placemark>
  <name>Red Threat Zone 33000 ppm = AEGL-3 (60 min)</name>
  <ExtendedData><Data name="MarplotID"><value>AAAAAAAAAAAAAA04</value></Data></ExtendedData>
  <description><![CDATA[<b>Time:</b> February 16, 2007  1409 hours CST<br><b>Chemical Name:</b> PROPANE<br><b>Wind:</b> 18 miles/hour from NNW at 3 meters<br><small><br></small><b>THREAT ZONE:</b><br><span style="background-color: rgb(255, 0, 0);">&nbsp;&nbsp;&nbsp;&nbsp;</span>&nbsp;Red   : 63 meters --- (33000 ppm = AEGL-3 [60 min])<br><span style="background-color: rgb(255, 153, 0);">&nbsp;&nbsp;&nbsp;&nbsp;</span>&nbsp;Orange: 105 meters --- (17000 ppm = AEGL-2 [60 min])<br><span style="background-color: rgb(255, 255, 0);">&nbsp;&nbsp;&nbsp;&nbsp;</span>&nbsp;Yellow: 227 meters --- (5500 ppm = AEGL-1 [60 min])<br><br><br>Model: ALOHA Heavy Gas <br>]]></description>
  <drawOrder>4</drawOrder><Polygon><gx:drawOrder>4</gx:drawOrder><outerBoundaryIs><LinearRing><coordinates>-101.879593,35.955174 -101.879594,35.955177 -101.879596,35.955180 -101.879599,35.955183 -101.879601,35.955185 -101.879604,35.955187 -101.879606,35.955189 -101.879610,35.955191 -101.879613,35.955193 -101.879618,35.955194 -101.879621,35.955195 -101.879624,35.955195 -101.879629,35.955196 -101.879632,35.955196 -101.879636,35.955196 -101.879640,35.955196 -101.879644,35.955195 -101.879648,35.955195 -101.879651,35.955194 -101.879655,35.955193 -101.879659,35.955191 -101.879662,35.955189 -101.879664,35.955187 -101.879668,35.955185 -101.879670,35.955183 -101.879672,35.955180 -101.879674,35.955177 -101.879675,35.955174 -101.879676,35.955171 -101.879678,35.955168 -101.879679,35.955165 -101.879679,35.955162 -101.879679,35.955159 -101.879679,35.955156 -101.879678,35.955152 -101.879676,35.955150 -101.879675,35.955147 -101.879660,35.955040 -101.879628,35.954933 -101.879582,35.954826 -101.879519,35.954719 -101.879412,35.954620 -101.879366,35.954636 -101.879319,35.954652 -101.879330,35.954782 -101.879379,35.954894 -101.879441,35.954996 -101.879511,35.955089 -101.879593,35.955174 </coordinates></LinearRing></outerBoundaryIs></Polygon>
  <Style><LineStyle><color>ff0000ff</color><width>3</width></LineStyle>  <PolyStyle><fill>1</fill><color>550000ff</color></PolyStyle></Style>
 </Placemark>
</Folder>
<Folder><name>Aloha Points</name>
 <Placemark>
  <name>ALOHA Source Point</name>
  <ExtendedData><Data name="MarplotID"><value>AAAAAA0000000000</value></Data></ExtendedData>
  <description><![CDATA[<b>Time:</b> February 16, 2007  1409 hours CST<br><b>Chemical Name:</b> PROPANE<br><b>Wind:</b> 18 miles/hour from NNW at 3 meters<br><small><br></small><b>THREAT ZONE:</b><br><span style="background-color: rgb(255, 0, 0);">&nbsp;&nbsp;&nbsp;&nbsp;</span>&nbsp;Red   : 63 meters --- (33000 ppm = AEGL-3 [60 min])<br><span style="background-color: rgb(255, 153, 0);">&nbsp;&nbsp;&nbsp;&nbsp;</span>&nbsp;Orange: 105 meters --- (17000 ppm = AEGL-2 [60 min])<br><span style="background-color: rgb(255, 255, 0);">&nbsp;&nbsp;&nbsp;&nbsp;</span>&nbsp;Yellow: 227 meters --- (5500 ppm = AEGL-1 [60 min])<br><br><br>Model: ALOHA Heavy Gas <br>]]></description>
  <Point><coordinates>-101.879634,35.955160</coordinates></Point>
 </Placemark>
</Folder>
</Document></kml>
