<?xml version="1.0" encoding="utf-8" ?>
<kml xmlns="http://www.opengis.net/kml/2.2"  xmlns:gx="http://www.google.com/kml/ext/2.2">
<Document>
<Folder><name>Aloha Threat Zones</name>
 <Placemark>
  <name>Yellow Wind Direction Confidence Lines 5500 ppm = AEGL-1 (60 min)</name>
  <ExtendedData><Data name="MarplotID"><value>AAAAAAAAAAAAAA02</value></Data></ExtendedData>
  <description><![CDATA[<b>Time:</b> February 16, 2007  1409 hours CST<br><b>Chemical Name:</b> PROPANE<br><b>Wind:</b> 18 miles/hour from N at 3 meters<br><small><br></small><b>THREAT ZONE:</b><br><span style="background-color: rgb(255, 0, 0);">&nbsp;&nbsp;&nbsp;&nbsp;</span>&nbsp;Red   : 63 meters --- (33000 ppm = AEGL-3 [60 min])<br><span style="background-color: rgb(255, 153, 0);">&nbsp;&nbsp;&nbsp;&nbsp;</span>&nbsp;Orange: 105 meters --- (17000 ppm = AEGL-2 [60 min])<br><span style="background-color: rgb(255, 255, 0);">&nbsp;&nbsp;&nbsp;&nbsp;</span>&nbsp;Yellow: 227 meters --- (5500 ppm = AEGL-1 [60 min])<br><br><br>Model: ALOHA Heavy Gas <br>]]></description>
  <drawOrder>1</drawOrder><Polygon><gx:drawOrder>1</gx:drawOrder><outerBoundaryIs><LinearRing><coordinates>-101.879679,35.955166 -101.879749,35.955069 -101.879809,35.954967 -101.879859,35.954858 -101.879902,35.954743 -101.879939,35.954623 -101.879974,35.954494 -101.880004,35.954360 -101.880031,35.954217 -101.880057,35.954066 -101.880079,35.953909 -101.880095,35.953740 -101.880106,35.953563 -101.880105,35.953374 -101.880073,35.953169 -101.880021,35.953139 -101.879976,35.953133 -101.879931,35.953129 -101.879887,35.953125 -101.879842,35.953122 -101.879797,35.953119 -101.879752,35.953117 -101.879707,35.953116 -101.879662,35.953115 -101.879606,35.953115 -101.879562,35.953116 -101.879516,35.953117 -101.879472,35.953119 -101.879426,35.953122 -101.879382,35.953125 -101.879337,35.953129 -101.879293,35.953133 -101.879247,35.953139 -101.879196,35.953169 -101.879164,35.953374 -101.879163,35.953563 -101.879174,35.953740 -101.879189,35.953909 -101.879211,35.954066 -101.879237,35.954217 -101.879265,35.954360 -101.879295,35.954494 -101.879329,35.954623 -101.879366,35.954743 -101.879409,35.954858 -101.879460,35.954967 -101.879520,35.955069 -101.879590,35.955166 -101.879679,35.955166 </coordinates></LinearRing></outerBoundaryIs></Polygon>
  <Style><LineStyle><color>ff00ffff</color><width>2</width></LineStyle>  <PolyStyle><fill>0</fill><color>5500ffff</color></PolyStyle></Style>
 </Placemark>
 <Placemark>
  <name>Yellow Threat Zone 5500 ppm = AEGL-1 (60 min)</name>
  <ExtendedData><Data name="MarplotID"><value>AAAAAAAAAAAAAA01</value></Data></ExtendedData>
  <description><![CDATA[<b>Time:</b> February 16, 2007  1409 hours CST<br><b>Chemical Name:</b> PROPANE<br><b>Wind:</b> 18 miles/hour from N at 3 meters<br><small><br></small><b>THREAT ZONE:</b><br><span style="background-color: rgb(255, 0, 0);">&nbsp;&nbsp;&nbsp;&nbsp;</span>&nbsp;Red   : 63 meters --- (33000 ppm = AEGL-3 [60 min])<br><span style="background-color: rgb(255, 153, 0);">&nbsp;&nbsp;&nbsp;&nbsp;</span>&nbsp;Orange: 105 meters --- (17000 ppm = AEGL-2 [60 min])<br><span style="background-color: rgb(255, 255, 0);">&nbsp;&nbsp;&nbsp;&nbsp;</span>&nbsp;Yellow: 227 meters --- (5500 ppm = AEGL-1 [60 min])<br><br><br>Model: ALOHA Heavy Gas <br>]]></description>
  <drawOrder>2</drawOrder><Polygon><gx:drawOrder>2</gx:drawOrder><outerBoundaryIs><LinearRing><coordinates>-101.879590,35.955160 -101.879590,35.955164 -101.879590,35.955167 -101.879591,35.955169 -101.879592,35.955173 -101.879593,35.955176 -101.879595,35.955178 -101.879597,35.955181 -101.879600,35.955184 -101.879602,35.955186 -101.879605,35.955188 -101.879609,35.955190 -101.879612,35.955192 -101.879615,35.955194 -101.879619,35.955195 -101.879623,35.955195 -101.879626,35.955196 -101.879630,35.955196 -101.879634,35.955196 -101.879639,35.955196 -101.879642,35.955196 -101.879645,35.955195 -101.879650,35.955195 -101.879653,35.955194 -101.879656,35.955192 -101.879660,35.955190 -101.879663,35.955188 -101.879666,35.955186 -101.879669,35.955184 -101.879671,35.955181 -101.879673,35.955178 -101.879675,35.955176 -101.879676,35.955173 -101.879678,35.955169 -101.879679,35.955167 -101.879679,35.955164 -101.879679,35.955160 -101.879732,35.955057 -101.879773,35.954949 -101.879803,35.954835 -101.879826,35.954716 -101.879841,35.954593 -101.879853,35.954462 -101.879860,35.954326 -101.879862,35.954181 -101.879860,35.954029 -101.879854,35.953870 -101.879841,35.953702 -101.879820,35.953524 -101.879787,35.953338 -101.879719,35.953140 -101.879662,35.953115 -101.879634,35.953115 -101.879606,35.953115 -101.879550,35.953140 -101.879482,35.953338 -101.879448,35.953524 -101.879427,35.953702 -101.879414,35.953870 -101.879408,35.954029 -101.879406,35.954181 -101.879408,35.954326 -101.879415,35.954462 -101.879427,35.954593 -101.879443,35.954716 -101.879465,35.954835 -101.879495,35.954949 -101.879536,35.955057 -101.879590,35.955160 </coordinates></LinearRing></outerBoundaryIs></Polygon>
  <Style><LineStyle><color>ff00ffff</color><width>3</width></LineStyle>  <PolyStyle><fill>1</fill><color>5500ffff</color></PolyStyle></Style>
 </Placemark>
 <Placemark>
  <name>Orange Threat Zone 17000 ppm = AEGL-2 (60 min)</name>
  <ExtendedData><Data name="MarplotID"><value>AAAAAAAAAAAAAA03</value></Data></ExtendedData>
  <description><![CDATA[<b>Time:</b> February 16, 2007  1409 hours CST<br><b>Chemical Name:</b> PROPANE<br><b>Wind:</b> 18 miles/hour from N at 3 meters<br><small><br></small><b>THREAT ZONE:</b><br><span style="background-color: rgb(255, 0, 0);">&nbsp;&nbsp;&nbsp;&nbsp;</span>&nbsp;Red   : 63 meters --- (33000 ppm = AEGL-3 [60 min])<br><span style="background-color: rgb(255, 153, 0);">&nbsp;&nbsp;&nbsp;&nbsp;</span>&nbsp;Orange: 105 meters --- (17000 ppm = AEGL-2 [60 min])<br><span style="background-color: rgb(255, 255, 0);">&nbsp;&nbsp;&nbsp;&nbsp;</span>&nbsp;Yellow: 227 meters --- (5500 ppm = AEGL-1 [60 min])<br><br><br>Model: ALOHA Heavy Gas <br>]]></description>
  <drawOrder>3</drawOrder><Polygon><gx:drawOrder>3</gx:drawOrder><outerBoundaryIs><LinearRing><coordinates>-101.879590,35.955160 -101.879590,35.955164 -101.879590,35.955167 -101.879591,35.955169 -101.879592,35.955173 -101.879593,35.955176 -101.879595,35.955178 -101.879597,35.955181 -101.879600,35.955184 -101.879602,35.955186 -101.879605,35.955188 -101.879609,35.955190 -101.879612,35.955192 -101.879615,35.955194 -101.879619,35.955195 -101.879623,35.955195 -101.879626,35.955196 -101.879630,35.955196 -101.879634,35.955196 -101.879639,35.955196 -101.879642,35.955196 -101.879645,35.955195 -101.879650,35.955195 -101.879653,35.955194 -101.879656,35.955192 -101.879660,35.955190 -101.879663,35.955188 -101.879666,35.955186 -101.879669,35.955184 -101.879671,35.955181 -101.879673,35.955178 -101.879675,35.955176 -101.879676,35.955173 -101.879678,35.955169 -101.879679,35.955167 -101.879679,35.955164 -101.879679,35.955160 -101.879721,35.955057 -101.879752,35.954949 -101.879770,35.954835 -101.879778,35.954716 -101.879780,35.954593 -101.879769,35.954462 -101.879744,35.954326 -101.879682,35.954219 -101.879634,35.954219 -101.879586,35.954219 -101.879524,35.954326 -101.879500,35.954462 -101.879488,35.954593 -101.879491,35.954716 -101.879498,35.954835 -101.879516,35.954949 -101.879547,35.955057 -101.879590,35.955160 </coordinates></LinearRing></outerBoundaryIs></Polygon>
  <Style><LineStyle><color>ff0080ff</color><width>3</width></LineStyle>  <PolyStyle><fill>1</fill><color>550080ff</color></PolyStyle></Style>
 </Placemark>
 <Placemark>
  <name>Red Threat Zone 33000 ppm = AEGL-3 (60 min)</name>
  <ExtendedData><Data name="MarplotID"><value>AAAAAAAAAAAAAA04</value></Data></ExtendedData>
  <description><![CDATA[<b>Time:</b> February 16, 2007  1409 hours CST<br><b>Chemical Name:</b> PROPANE<br><b>Wind:</b> 18 miles/hour from N at 3 meters<br><small><br></small><b>THREAT ZONE:</b><br><span style="background-color: rgb(255, 0, 0);">&nbsp;&nbsp;&nbsp;&nbsp;</span>&nbsp;Red   : 63 meters --- (33000 ppm = AEGL-3 [60 min])<br><span style="background-color: rgb(255, 153, 0);">&nbsp;&nbsp;&nbsp;&nbsp;</span>&nbsp;Orange: 105 meters --- (17000 ppm = AEGL-2 [60 min])<br><span style="background-color: rgb(255, 255, 0);">&nbsp;&nbsp;&nbsp;&nbsp;</span>&nbsp;Yellow: 227 meters --- (5500 ppm = AEGL-1 [60 min])<br><br><br>Model: ALOHA Heavy Gas <br>]]></description>
  <drawOrder>4</drawOrder><Polygon><gx:drawOrder>4</gx:drawOrder><outerBoundaryIs><LinearRing><coordinates>-101.879590,35.955160 -101.879590,35.955164 -101.879590,35.955167 -101.879591,35.955169 -101.879592,35.955173 -101.879593,35.955176 -101.879595,35.955178 -101.879597,35.955181 -101.879600,35.955184 -101.879602,35.955186 -101.879605,35.955188 -101.879609,35.955190 -101.879612,35.955192 -101.879615,35.955194 -101.879619,35.955195 -101.879623,35.955195 -101.879626,35.955196 -101.879630,35.955196 -101.879634,35.955196 -101.879639,35.955196 -101.879642,35.955196 -101.879645,35.955195 -101.879650,35.955195 -101.879653,35.955194 -101.879656,35.955192 -101.879660,35.955190 -101.879663,35.955188 -101.879666,35.955186 -101.879669,35.955184 -101.879671,35.955181 -101.879673,35.955178 -101.879675,35.955176 -101.879676,35.955173 -101.879678,35.955169 -101.879679,35.955167 -101.879679,35.955164 -101.879679,35.955160 -101.879714,35.955057 -101.879735,35.954949 -101.879744,35.954835 -101.879735,35.954716 -101.879684,35.954593 -101.879634,35.954593 -101.879584,35.954593 -101.879533,35.954716 -101.879524,35.954835 -101.879533,35.954949 -101.879554,35.955057 -101.879590,35.955160 </coordinates></LinearRing></outerBoundaryIs></Polygon>
  <Style><LineStyle><color>ff0000ff</color><width>3</width></LineStyle>  <PolyStyle><fill>1</fill><color>550000ff</color></PolyStyle></Style>
 </Placemark>
</Folder>
<Folder><name>Aloha Points</name>
 <Placemark>
  <name>ALOHA Source Point</name>
  <ExtendedData><Data name="MarplotID"><value>AAAAAA0000000000</value></Data></ExtendedData>
  <description><![CDATA[<b>Time:</b> February 16, 2007  1409 hours CST<br><b>Chemical Name:</b> PROPANE<br><b>Wind:</b> 18 miles/hour from N at 3 meters<br><small><br></small><b>THREAT ZONE:</b><br><span style="background-color: rgb(255, 0, 0);">&nbsp;&nbsp;&nbsp;&nbsp;</span>&nbsp;Red   : 63 meters --- (33000 ppm = AEGL-3 [60 min])<br><span style="background-color: rgb(255, 153, 0);">&nbsp;&nbsp;&nbsp;&nbsp;</span>&nbsp;Orange: 105 meters --- (17000 ppm = AEGL-2 [60 min])<br><span style="background-color: rgb(255, 255, 0);">&nbsp;&nbsp;&nbsp;&nbsp;</span>&nbsp;Yellow: 227 meters --- (5500 ppm = AEGL-1 [60 min])<br><br><br>Model: ALOHA Heavy Gas <br>]]></description>
  <Point><coordinates>-101.879634,35.955160</coordinates></Point>
 </Placemark>
</Folder>
</Document></kml>
