,,s,s,s
Time Step,Wall Time,Step Size,Simulation Time,CPU Time
      1,2021-06-23T14:54:51.063+02:00,   0.183E+00,   0.18257,   0.101E+02
      2,2021-06-23T14:54:51.084+02:00,   0.183E+00,   0.36515,   0.102E+02
      3,2021-06-23T16:00:52.589+02:00,   0.183E+00,   0.54772,   0.397E+04
      4,2021-06-23T18:42:03.904+02:00,   0.183E+00,   0.73030,   0.136E+05
