,,s,s,s
Time Step,Wall Time,Step Size,Simulation Time,CPU Time
      1,2021-06-22T21:18:55.786+02:00,   0.102E+00,   0.10206,   0.560E+01
      2,2021-06-22T21:18:55.864+02:00,   0.102E+00,   0.20412,   0.585E+01
      3,2021-06-22T21:18:55.939+02:00,   0.102E+00,   0.30619,   0.614E+01
      4,2021-06-22T21:18:56.009+02:00,   0.102E+00,   0.40825,   0.640E+01
      5,2021-06-22T21:18:56.071+02:00,   0.102E+00,   0.51031,   0.663E+01
      6,2021-06-22T21:18:56.154+02:00,   0.102E+00,   0.61237,   0.694E+01
      7,2021-06-22T21:18:56.223+02:00,   0.102E+00,   0.71443,   0.719E+01
      8,2021-06-22T21:18:56.291+02:00,   0.102E+00,   0.81650,   0.745E+01
      9,2021-06-22T21:18:56.366+02:00,   0.102E+00,   0.91856,   0.773E+01
     10,2021-06-22T21:18:56.433+02:00,   0.102E+00,   1.02062,   0.798E+01
     20,2021-06-22T21:18:57.251+02:00,   0.102E+00,   2.04124,   0.109E+02
     30,2021-06-22T21:18:58.099+02:00,   0.666E-01,   2.83609,   0.139E+02
     40,2021-06-22T21:18:58.661+02:00,   0.666E-01,   3.50185,   0.161E+02
     50,2021-06-22T21:18:59.425+02:00,   0.666E-01,   4.16762,   0.189E+02
     60,2021-06-22T21:19:00.158+02:00,   0.666E-01,   4.83339,   0.217E+02
     70,2021-06-22T21:19:00.802+02:00,   0.732E-01,   5.50581,   0.241E+02
     80,2021-06-22T21:19:01.642+02:00,   0.616E-01,   6.13334,   0.270E+02
     90,2021-06-22T21:19:02.242+02:00,   0.547E-01,   6.68033,   0.294E+02
    100,2021-06-22T21:19:02.817+02:00,   0.461E-01,   7.18711,   0.317E+02
    200,2021-06-22T21:19:10.017+02:00,   0.371E-01,  11.10456,   0.582E+02
    300,2021-06-22T21:19:16.378+02:00,   0.371E-01,  14.88609,   0.822E+02
    400,2021-06-22T21:19:23.033+02:00,   0.363E-01,  18.59812,   0.107E+03
    500,2021-06-22T21:19:29.266+02:00,   0.399E-01,  22.23614,   0.131E+03
    600,2021-06-22T21:19:36.156+02:00,   0.371E-01,  25.96829,   0.156E+03
    700,2021-06-22T21:19:42.772+02:00,   0.371E-01,  29.67391,   0.181E+03
    800,2021-06-22T21:19:49.231+02:00,   0.345E-01,  33.15232,   0.206E+03
    900,2021-06-22T21:19:55.937+02:00,   0.355E-01,  36.56131,   0.231E+03
   1000,2021-06-22T21:20:02.470+02:00,   0.362E-01,  39.85687,   0.256E+03
   1100,2021-06-22T21:20:08.846+02:00,   0.291E-01,  43.06083,   0.281E+03
   1200,2021-06-22T21:20:15.498+02:00,   0.226E-01,  45.77387,   0.306E+03
   1300,2021-06-22T21:20:23.490+02:00,   0.235E-01,  48.58826,   0.335E+03
   1400,2021-06-22T21:20:30.229+02:00,   0.267E-01,  51.19212,   0.360E+03
   1500,2021-06-22T21:20:37.088+02:00,   0.241E-01,  53.64248,   0.386E+03
   1600,2021-06-22T21:20:43.973+02:00,   0.221E-01,  56.10566,   0.412E+03
   1700,2021-06-22T21:20:51.153+02:00,   0.227E-01,  58.29490,   0.438E+03
   1800,2021-06-22T21:20:58.656+02:00,   0.254E-01,  60.85275,   0.465E+03
   1900,2021-06-22T21:21:05.761+02:00,   0.263E-01,  63.35016,   0.492E+03
   2000,2021-06-22T21:21:13.726+02:00,   0.261E-01,  65.62416,   0.520E+03
   2100,2021-06-22T21:21:20.331+02:00,   0.232E-01,  68.13957,   0.545E+03
   2200,2021-06-22T21:21:27.497+02:00,   0.235E-01,  70.37620,   0.572E+03
   2300,2021-06-22T21:21:35.419+02:00,   0.227E-01,  72.73157,   0.600E+03
   2400,2021-06-22T21:21:46.703+02:00,   0.268E-01,  75.06764,   0.636E+03
   2500,2021-06-22T21:21:53.957+02:00,   0.239E-01,  77.52085,   0.663E+03
   2600,2021-06-22T21:22:03.303+02:00,   0.296E-01,  79.92024,   0.693E+03
   2700,2021-06-22T21:22:12.899+02:00,   0.207E-01,  82.29027,   0.725E+03
   2800,2021-06-22T21:22:21.338+02:00,   0.236E-01,  84.53409,   0.754E+03
   2900,2021-06-22T21:22:27.984+02:00,   0.227E-01,  86.79004,   0.779E+03
   3000,2021-06-22T21:22:36.471+02:00,   0.176E-01,  89.06423,   0.809E+03
   3100,2021-06-22T21:22:43.257+02:00,   0.225E-01,  91.13273,   0.834E+03
   3200,2021-06-22T21:22:50.518+02:00,   0.212E-01,  93.39065,   0.861E+03
   3300,2021-06-22T21:22:58.262+02:00,   0.251E-01,  95.68158,   0.889E+03
   3400,2021-06-22T21:23:07.100+02:00,   0.210E-01,  97.91614,   0.918E+03
   3500,2021-06-22T21:23:15.143+02:00,   0.236E-01,  99.92651,   0.947E+03
   3600,2021-06-22T21:23:21.930+02:00,   0.203E-01, 102.30188,   0.972E+03
   3700,2021-06-22T21:23:28.166+02:00,   0.264E-01, 104.68135,   0.996E+03
   3800,2021-06-22T21:23:34.515+02:00,   0.229E-01, 107.10118,   0.102E+04
   3900,2021-06-22T21:23:40.885+02:00,   0.228E-01, 109.34460,   0.105E+04
   4000,2021-06-22T21:23:47.287+02:00,   0.243E-01, 111.80362,   0.107E+04
   4100,2021-06-22T21:23:58.682+02:00,   0.258E-01, 113.99661,   0.111E+04
   4200,2021-06-22T21:24:08.714+02:00,   0.250E-01, 116.44286,   0.114E+04
   4300,2021-06-22T21:24:19.619+02:00,   0.214E-01, 118.55934,   0.117E+04
   4400,2021-06-22T21:24:27.578+02:00,   0.212E-01, 120.92373,   0.120E+04
   4500,2021-06-22T21:24:34.951+02:00,   0.191E-01, 122.96023,   0.123E+04
   4600,2021-06-22T21:24:41.385+02:00,   0.228E-01, 125.16145,   0.125E+04
   4700,2021-06-22T21:24:48.145+02:00,   0.200E-01, 127.32559,   0.128E+04
   4800,2021-06-22T21:24:55.302+02:00,   0.188E-01, 129.34165,   0.130E+04
   4900,2021-06-22T21:25:04.412+02:00,   0.205E-01, 131.41216,   0.134E+04
   5000,2021-06-22T21:25:12.506+02:00,   0.222E-01, 133.61442,   0.136E+04
   5100,2021-06-22T21:25:19.243+02:00,   0.223E-01, 135.78315,   0.139E+04
   5200,2021-06-22T21:25:27.296+02:00,   0.233E-01, 138.11952,   0.142E+04
   5300,2021-06-22T21:25:34.925+02:00,   0.218E-01, 140.19140,   0.145E+04
   5400,2021-06-22T21:25:42.905+02:00,   0.207E-01, 142.34956,   0.147E+04
   5500,2021-06-22T21:25:55.679+02:00,   0.203E-01, 144.41006,   0.151E+04
   5600,2021-06-22T21:26:03.993+02:00,   0.179E-01, 146.57854,   0.154E+04
   5700,2021-06-22T21:26:12.197+02:00,   0.176E-01, 148.63664,   0.157E+04
   5800,2021-06-22T21:26:19.877+02:00,   0.212E-01, 150.79013,   0.160E+04
   5900,2021-06-22T21:26:26.725+02:00,   0.239E-01, 152.77856,   0.163E+04
   6000,2021-06-22T21:26:33.531+02:00,   0.232E-01, 154.78463,   0.165E+04
   6100,2021-06-22T21:26:40.972+02:00,   0.221E-01, 157.34728,   0.168E+04
   6200,2021-06-22T21:26:48.803+02:00,   0.209E-01, 159.78024,   0.171E+04
   6300,2021-06-22T21:26:55.848+02:00,   0.169E-01, 161.73501,   0.173E+04
   6400,2021-06-22T21:27:03.222+02:00,   0.200E-01, 163.68073,   0.176E+04
   6500,2021-06-22T21:27:09.807+02:00,   0.235E-01, 165.91069,   0.179E+04
   6600,2021-06-22T21:27:17.554+02:00,   0.169E-01, 167.93441,   0.181E+04
   6700,2021-06-22T21:27:24.184+02:00,   0.234E-01, 169.88157,   0.184E+04
   6800,2021-06-22T21:27:31.183+02:00,   0.212E-01, 172.11157,   0.187E+04
   6900,2021-06-22T21:27:38.230+02:00,   0.205E-01, 174.04474,   0.189E+04
   7000,2021-06-22T21:27:45.220+02:00,   0.164E-01, 175.94983,   0.192E+04
   7100,2021-06-22T21:27:51.840+02:00,   0.170E-01, 177.91550,   0.194E+04
   7200,2021-06-22T21:27:58.365+02:00,   0.211E-01, 179.81690,   0.197E+04
   7300,2021-06-22T21:28:05.054+02:00,   0.180E-01, 181.90721,   0.199E+04
   7400,2021-06-22T21:28:11.935+02:00,   0.190E-01, 183.82824,   0.202E+04
   7500,2021-06-22T21:28:19.387+02:00,   0.200E-01, 185.77174,   0.205E+04
   7600,2021-06-22T21:28:28.472+02:00,   0.233E-01, 187.64656,   0.208E+04
   7700,2021-06-22T21:28:38.061+02:00,   0.177E-01, 189.55032,   0.211E+04
   7800,2021-06-22T21:28:46.551+02:00,   0.183E-01, 191.46446,   0.214E+04
   7900,2021-06-22T21:28:54.192+02:00,   0.189E-01, 193.38550,   0.217E+04
   8000,2021-06-22T21:29:06.712+02:00,   0.216E-01, 195.26553,   0.220E+04
   8100,2021-06-22T21:29:15.517+02:00,   0.199E-01, 197.21231,   0.223E+04
   8200,2021-06-22T21:29:23.268+02:00,   0.225E-01, 199.37330,   0.226E+04
   8300,2021-06-22T21:29:32.405+02:00,   0.203E-01, 201.38098,   0.229E+04
   8400,2021-06-22T21:29:41.005+02:00,   0.211E-01, 203.40728,   0.232E+04
   8500,2021-06-22T21:29:48.748+02:00,   0.187E-01, 205.34478,   0.235E+04
   8600,2021-06-22T21:29:56.245+02:00,   0.198E-01, 207.29197,   0.238E+04
   8700,2021-06-22T21:30:04.890+02:00,   0.187E-01, 209.24887,   0.241E+04
   8800,2021-06-22T21:30:11.743+02:00,   0.191E-01, 211.14259,   0.243E+04
   8900,2021-06-22T21:30:18.754+02:00,   0.188E-01, 212.86126,   0.246E+04
   9000,2021-06-22T21:30:25.626+02:00,   0.182E-01, 214.70283,   0.248E+04
   9100,2021-06-22T21:30:32.142+02:00,   0.156E-01, 216.55576,   0.251E+04
   9200,2021-06-22T21:30:40.079+02:00,   0.221E-01, 218.67018,   0.253E+04
   9300,2021-06-22T21:30:46.359+02:00,   0.170E-01, 220.58280,   0.256E+04
   9400,2021-06-22T21:30:57.066+02:00,   0.211E-01, 222.40040,   0.259E+04
   9500,2021-06-22T21:31:08.754+02:00,   0.177E-01, 224.08216,   0.263E+04
   9600,2021-06-22T21:31:15.858+02:00,   0.187E-01, 226.04172,   0.265E+04
   9700,2021-06-22T21:31:22.625+02:00,   0.167E-01, 227.88924,   0.268E+04
   9800,2021-06-22T21:31:29.911+02:00,   0.190E-01, 229.63114,   0.271E+04
   9900,2021-06-22T21:31:40.234+02:00,   0.184E-01, 231.76380,   0.274E+04
  10000,2021-06-22T21:31:47.752+02:00,   0.182E-01, 233.57647,   0.277E+04
  10100,2021-06-22T21:31:55.514+02:00,   0.183E-01, 235.42130,   0.279E+04
  10200,2021-06-22T21:32:02.555+02:00,   0.221E-01, 237.36644,   0.282E+04
  10300,2021-06-22T21:32:10.630+02:00,   0.182E-01, 239.21172,   0.285E+04
  10400,2021-06-22T21:32:17.738+02:00,   0.174E-01, 241.02533,   0.287E+04
  10500,2021-06-22T21:32:24.496+02:00,   0.147E-01, 242.81007,   0.290E+04
  10600,2021-06-22T21:32:31.545+02:00,   0.204E-01, 244.64214,   0.293E+04
  10700,2021-06-22T21:32:38.496+02:00,   0.170E-01, 246.44743,   0.295E+04
  10800,2021-06-22T21:32:50.011+02:00,   0.188E-01, 248.19779,   0.299E+04
  10900,2021-06-22T21:33:02.459+02:00,   0.185E-01, 250.34532,   0.302E+04
  11000,2021-06-22T21:33:12.678+02:00,   0.235E-01, 252.35083,   0.306E+04
  11100,2021-06-22T21:33:21.166+02:00,   0.177E-01, 254.13814,   0.308E+04
  11200,2021-06-22T21:33:29.321+02:00,   0.172E-01, 255.93129,   0.311E+04
  11300,2021-06-22T21:33:37.834+02:00,   0.161E-01, 257.82857,   0.314E+04
  11400,2021-06-22T21:33:49.331+02:00,   0.193E-01, 259.58245,   0.318E+04
  11500,2021-06-22T21:33:56.621+02:00,   0.154E-01, 261.25606,   0.320E+04
  11600,2021-06-22T21:34:04.406+02:00,   0.175E-01, 262.97591,   0.323E+04
  11700,2021-06-22T21:34:11.794+02:00,   0.161E-01, 264.70900,   0.326E+04
  11800,2021-06-22T21:34:19.276+02:00,   0.162E-01, 266.36040,   0.329E+04
  11900,2021-06-22T21:34:28.527+02:00,   0.172E-01, 268.12078,   0.332E+04
  12000,2021-06-22T21:34:38.304+02:00,   0.177E-01, 269.97950,   0.335E+04
  12100,2021-06-22T21:34:47.944+02:00,   0.154E-01, 271.64988,   0.338E+04
  12200,2021-06-22T21:34:54.737+02:00,   0.166E-01, 273.34182,   0.341E+04
  12300,2021-06-22T21:35:02.494+02:00,   0.152E-01, 275.04825,   0.343E+04
  12400,2021-06-22T21:35:09.429+02:00,   0.159E-01, 276.83585,   0.346E+04
  12500,2021-06-22T21:35:19.523+02:00,   0.178E-01, 278.50496,   0.349E+04
  12600,2021-06-22T21:35:27.114+02:00,   0.163E-01, 280.28518,   0.352E+04
  12700,2021-06-22T21:35:33.494+02:00,   0.155E-01, 281.86985,   0.354E+04
  12800,2021-06-22T21:35:40.630+02:00,   0.138E-01, 283.46836,   0.357E+04
  12900,2021-06-22T21:35:47.944+02:00,   0.181E-01, 284.98714,   0.360E+04
  13000,2021-06-22T21:35:55.348+02:00,   0.251E-01, 287.24300,   0.362E+04
  13100,2021-06-22T21:36:02.649+02:00,   0.217E-01, 289.63372,   0.365E+04
  13200,2021-06-22T21:36:10.057+02:00,   0.254E-01, 291.98963,   0.368E+04
  13300,2021-06-22T21:36:18.018+02:00,   0.190E-01, 294.38462,   0.370E+04
  13400,2021-06-22T21:36:26.189+02:00,   0.241E-01, 296.64163,   0.373E+04
  13500,2021-06-22T21:36:34.442+02:00,   0.230E-01, 298.84865,   0.376E+04
  13600,2021-06-22T21:36:43.138+02:00,   0.218E-01, 301.22716,   0.379E+04
  13700,2021-06-22T21:36:51.365+02:00,   0.235E-01, 303.65186,   0.382E+04
  13800,2021-06-22T21:36:58.990+02:00,   0.170E-01, 305.62896,   0.385E+04
  13900,2021-06-22T21:37:06.287+02:00,   0.226E-01, 307.78812,   0.387E+04
  14000,2021-06-22T21:37:13.578+02:00,   0.239E-01, 309.83258,   0.390E+04
  14100,2021-06-22T21:37:21.693+02:00,   0.237E-01, 312.05507,   0.393E+04
  14200,2021-06-22T21:37:29.483+02:00,   0.245E-01, 314.40288,   0.395E+04
  14300,2021-06-22T21:37:36.406+02:00,   0.189E-01, 316.63055,   0.398E+04
  14400,2021-06-22T21:37:45.380+02:00,   0.202E-01, 318.59763,   0.401E+04
  14500,2021-06-22T21:37:53.262+02:00,   0.237E-01, 320.51157,   0.404E+04
  14600,2021-06-22T21:38:00.170+02:00,   0.188E-01, 322.54080,   0.406E+04
  14700,2021-06-22T21:38:08.035+02:00,   0.194E-01, 324.46328,   0.409E+04
  14800,2021-06-22T21:38:16.846+02:00,   0.159E-01, 326.37569,   0.412E+04
  14900,2021-06-22T21:38:25.068+02:00,   0.165E-01, 328.06095,   0.415E+04
  15000,2021-06-22T21:38:32.001+02:00,   0.179E-01, 329.83711,   0.418E+04
  15100,2021-06-22T21:38:40.195+02:00,   0.179E-01, 331.59701,   0.420E+04
  15200,2021-06-22T21:38:47.560+02:00,   0.148E-01, 333.35036,   0.423E+04
  15300,2021-06-22T21:38:54.743+02:00,   0.180E-01, 335.02107,   0.426E+04
  15400,2021-06-22T21:39:01.230+02:00,   0.196E-01, 336.91927,   0.428E+04
  15500,2021-06-22T21:39:09.307+02:00,   0.226E-01, 338.97474,   0.431E+04
  15600,2021-06-22T21:39:18.365+02:00,   0.215E-01, 341.24825,   0.434E+04
  15700,2021-06-22T21:39:26.469+02:00,   0.228E-01, 343.48041,   0.437E+04
  15800,2021-06-22T21:39:34.399+02:00,   0.190E-01, 345.63246,   0.440E+04
  15900,2021-06-22T21:39:41.496+02:00,   0.218E-01, 347.62093,   0.442E+04
  16000,2021-06-22T21:39:48.917+02:00,   0.184E-01, 349.73548,   0.445E+04
  16100,2021-06-22T21:40:01.461+02:00,   0.168E-01, 351.73585,   0.449E+04
  16200,2021-06-22T21:40:10.163+02:00,   0.205E-01, 353.73613,   0.452E+04
  16300,2021-06-22T21:40:19.872+02:00,   0.189E-01, 355.74158,   0.455E+04
  16400,2021-06-22T21:40:27.353+02:00,   0.227E-01, 357.61472,   0.458E+04
  16500,2021-06-22T21:40:34.902+02:00,   0.152E-01, 359.58842,   0.460E+04
  16600,2021-06-22T21:40:42.027+02:00,   0.204E-01, 361.70438,   0.463E+04
  16700,2021-06-22T21:40:48.484+02:00,   0.161E-01, 363.58684,   0.465E+04
  16800,2021-06-22T21:40:55.293+02:00,   0.179E-01, 365.52307,   0.468E+04
  16900,2021-06-22T21:41:03.686+02:00,   0.147E-01, 367.45795,   0.471E+04
  17000,2021-06-22T21:41:10.621+02:00,   0.150E-01, 369.10400,   0.473E+04
  17100,2021-06-22T21:41:18.633+02:00,   0.168E-01, 370.90356,   0.476E+04
  17200,2021-06-22T21:41:25.898+02:00,   0.180E-01, 372.68771,   0.479E+04
  17300,2021-06-22T21:41:33.179+02:00,   0.156E-01, 374.43649,   0.482E+04
  17400,2021-06-22T21:41:39.736+02:00,   0.220E-01, 376.26983,   0.484E+04
  17500,2021-06-22T21:41:46.745+02:00,   0.197E-01, 378.64256,   0.487E+04
  17600,2021-06-22T21:41:58.129+02:00,   0.253E-01, 381.10262,   0.490E+04
  17700,2021-06-22T21:42:07.957+02:00,   0.189E-01, 383.44009,   0.493E+04
  17800,2021-06-22T21:42:18.154+02:00,   0.272E-01, 385.91534,   0.497E+04
  17900,2021-06-22T21:42:25.547+02:00,   0.273E-01, 388.37779,   0.499E+04
  18000,2021-06-22T21:42:33.166+02:00,   0.249E-01, 390.83068,   0.502E+04
  18100,2021-06-22T21:42:40.859+02:00,   0.248E-01, 393.21534,   0.505E+04
  18200,2021-06-22T21:42:50.033+02:00,   0.187E-01, 395.66419,   0.508E+04
  18300,2021-06-22T21:42:59.209+02:00,   0.227E-01, 397.72665,   0.511E+04
  18400,2021-06-22T21:43:07.645+02:00,   0.223E-01, 400.02001,   0.514E+04
  18500,2021-06-22T21:43:15.264+02:00,   0.266E-01, 402.42730,   0.516E+04
  18600,2021-06-22T21:43:22.526+02:00,   0.216E-01, 404.86231,   0.519E+04
  18700,2021-06-22T21:43:29.486+02:00,   0.203E-01, 407.04184,   0.521E+04
  18800,2021-06-22T21:43:36.054+02:00,   0.238E-01, 409.13969,   0.524E+04
  18900,2021-06-22T21:43:43.197+02:00,   0.297E-01, 411.45639,   0.527E+04
  19000,2021-06-22T21:43:50.541+02:00,   0.236E-01, 413.67578,   0.529E+04
  19100,2021-06-22T21:43:57.365+02:00,   0.262E-01, 415.80445,   0.532E+04
  19200,2021-06-22T21:44:04.230+02:00,   0.188E-01, 418.08972,   0.534E+04
  19300,2021-06-22T21:44:11.025+02:00,   0.283E-01, 420.42564,   0.537E+04
  19400,2021-06-22T21:44:17.915+02:00,   0.196E-01, 422.65893,   0.539E+04
  19500,2021-06-22T21:44:24.217+02:00,   0.212E-01, 424.72337,   0.542E+04
  19600,2021-06-22T21:44:31.695+02:00,   0.203E-01, 426.51692,   0.545E+04
  19700,2021-06-22T21:44:38.989+02:00,   0.183E-01, 428.42919,   0.547E+04
  19800,2021-06-22T21:44:45.397+02:00,   0.228E-01, 430.05061,   0.550E+04
  19900,2021-06-22T21:44:53.885+02:00,   0.196E-01, 431.89910,   0.553E+04
  20000,2021-06-22T21:45:03.052+02:00,   0.143E-01, 433.50703,   0.556E+04
  20100,2021-06-22T21:45:11.194+02:00,   0.208E-01, 435.63742,   0.559E+04
  20200,2021-06-22T21:45:18.772+02:00,   0.202E-01, 437.53491,   0.561E+04
  20300,2021-06-22T21:45:27.104+02:00,   0.141E-01, 439.30799,   0.564E+04
  20400,2021-06-22T21:45:35.910+02:00,   0.141E-01, 440.91229,   0.567E+04
  20500,2021-06-22T21:45:43.421+02:00,   0.139E-01, 442.59416,   0.570E+04
  20600,2021-06-22T21:45:51.465+02:00,   0.197E-01, 444.07428,   0.573E+04
  20700,2021-06-22T21:45:58.806+02:00,   0.176E-01, 445.62317,   0.576E+04
  20800,2021-06-22T21:46:07.866+02:00,   0.136E-01, 447.27677,   0.579E+04
  20900,2021-06-22T21:46:15.267+02:00,   0.173E-01, 448.80169,   0.581E+04
  21000,2021-06-22T21:46:23.550+02:00,   0.157E-01, 450.40890,   0.584E+04
  21100,2021-06-22T21:46:31.464+02:00,   0.174E-01, 451.86868,   0.587E+04
  21200,2021-06-22T21:46:39.349+02:00,   0.176E-01, 453.37507,   0.590E+04
  21300,2021-06-22T21:46:48.184+02:00,   0.153E-01, 454.86226,   0.593E+04
  21400,2021-06-22T21:46:56.369+02:00,   0.170E-01, 456.35633,   0.596E+04
  21500,2021-06-22T21:47:03.227+02:00,   0.147E-01, 457.69440,   0.599E+04
  21600,2021-06-22T21:47:11.352+02:00,   0.147E-01, 459.12988,   0.602E+04
  21700,2021-06-22T21:47:18.947+02:00,   0.161E-01, 460.63597,   0.604E+04
  21800,2021-06-22T21:47:25.809+02:00,   0.143E-01, 462.08181,   0.607E+04
  21900,2021-06-22T21:47:32.224+02:00,   0.128E-01, 463.53917,   0.609E+04
  22000,2021-06-22T21:47:38.717+02:00,   0.131E-01, 464.96003,   0.612E+04
  22100,2021-06-22T21:47:45.215+02:00,   0.164E-01, 466.45912,   0.614E+04
  22200,2021-06-22T21:47:51.640+02:00,   0.121E-01, 467.98184,   0.617E+04
  22300,2021-06-22T21:47:58.522+02:00,   0.111E-01, 469.49363,   0.620E+04
  22400,2021-06-22T21:48:04.867+02:00,   0.147E-01, 470.82771,   0.622E+04
  22500,2021-06-22T21:48:11.213+02:00,   0.150E-01, 472.08647,   0.624E+04
  22600,2021-06-22T21:48:19.310+02:00,   0.104E-01, 473.55821,   0.627E+04
  22700,2021-06-22T21:48:27.572+02:00,   0.153E-01, 475.06153,   0.630E+04
  22800,2021-06-22T21:48:36.189+02:00,   0.143E-01, 476.45120,   0.633E+04
  22900,2021-06-22T21:48:43.727+02:00,   0.165E-01, 477.72297,   0.636E+04
  23000,2021-06-22T21:48:50.787+02:00,   0.142E-01, 479.01927,   0.638E+04
  23100,2021-06-22T21:48:58.193+02:00,   0.165E-01, 480.29212,   0.641E+04
  23200,2021-06-22T21:49:05.726+02:00,   0.147E-01, 481.86939,   0.644E+04
  23300,2021-06-22T21:49:18.150+02:00,   0.150E-01, 483.30789,   0.648E+04
  23400,2021-06-22T21:49:26.623+02:00,   0.137E-01, 484.61257,   0.651E+04
  23500,2021-06-22T21:49:34.558+02:00,   0.136E-01, 486.05194,   0.653E+04
  23600,2021-06-22T21:49:41.985+02:00,   0.123E-01, 487.42975,   0.656E+04
  23700,2021-06-22T21:49:49.689+02:00,   0.140E-01, 488.69320,   0.659E+04
  23800,2021-06-22T21:49:57.777+02:00,   0.152E-01, 489.94279,   0.662E+04
  23900,2021-06-22T21:50:06.326+02:00,   0.153E-01, 491.38230,   0.665E+04
  24000,2021-06-22T21:50:16.114+02:00,   0.133E-01, 492.74091,   0.668E+04
  24100,2021-06-22T21:50:31.379+02:00,   0.127E-01, 494.04669,   0.672E+04
  24200,2021-06-22T21:50:39.538+02:00,   0.145E-01, 495.20196,   0.675E+04
  24300,2021-06-22T21:50:46.419+02:00,   0.125E-01, 496.67629,   0.678E+04
  24400,2021-06-22T21:50:53.883+02:00,   0.102E-01, 498.12217,   0.681E+04
  24500,2021-06-22T21:51:00.898+02:00,   0.115E-01, 499.33204,   0.683E+04
  24600,2021-06-22T21:51:10.498+02:00,   0.148E-01, 500.78627,   0.686E+04
  24700,2021-06-22T21:51:18.643+02:00,   0.125E-01, 502.20324,   0.689E+04
  24800,2021-06-22T21:51:25.320+02:00,   0.100E-01, 503.46323,   0.692E+04
  24900,2021-06-22T21:51:32.057+02:00,   0.134E-01, 504.70741,   0.694E+04
  25000,2021-06-22T21:51:38.866+02:00,   0.123E-01, 505.91676,   0.697E+04
  25100,2021-06-22T21:51:46.295+02:00,   0.157E-01, 507.41015,   0.700E+04
  25200,2021-06-22T21:51:53.647+02:00,   0.126E-01, 508.75636,   0.702E+04
  25300,2021-06-22T21:52:01.300+02:00,   0.114E-01, 510.07722,   0.705E+04
  25400,2021-06-22T21:52:10.943+02:00,   0.170E-01, 511.45926,   0.708E+04
  25500,2021-06-22T21:52:19.810+02:00,   0.125E-01, 512.69613,   0.711E+04
  25600,2021-06-22T21:52:32.217+02:00,   0.130E-01, 513.88999,   0.715E+04
  25700,2021-06-22T21:52:40.928+02:00,   0.141E-01, 515.18289,   0.718E+04
  25800,2021-06-22T21:52:49.589+02:00,   0.126E-01, 516.51400,   0.721E+04
  25900,2021-06-22T21:52:56.630+02:00,   0.136E-01, 517.70876,   0.724E+04
  26000,2021-06-22T21:53:03.203+02:00,   0.125E-01, 519.00166,   0.726E+04
  26100,2021-06-22T21:53:09.799+02:00,   0.141E-01, 520.52661,   0.729E+04
  26200,2021-06-22T21:53:17.318+02:00,   0.144E-01, 521.85539,   0.732E+04
  26300,2021-06-22T21:53:24.291+02:00,   0.133E-01, 523.08449,   0.734E+04
  26400,2021-06-22T21:53:31.033+02:00,   0.125E-01, 524.35947,   0.737E+04
  26500,2021-06-22T21:53:37.719+02:00,   0.153E-01, 525.58482,   0.739E+04
  26600,2021-06-22T21:53:45.438+02:00,   0.117E-01, 526.96020,   0.742E+04
  26700,2021-06-22T21:53:52.852+02:00,   0.164E-01, 528.29543,   0.745E+04
  26800,2021-06-22T21:54:01.159+02:00,   0.122E-01, 529.56271,   0.748E+04
  26900,2021-06-22T21:54:09.187+02:00,   0.120E-01, 530.74525,   0.751E+04
  27000,2021-06-22T21:54:17.640+02:00,   0.113E-01, 531.98891,   0.754E+04
  27100,2021-06-22T21:54:25.134+02:00,   0.131E-01, 533.13227,   0.757E+04
  27200,2021-06-22T21:54:32.420+02:00,   0.111E-01, 534.32206,   0.759E+04
  27300,2021-06-22T21:54:39.875+02:00,   0.117E-01, 535.41390,   0.762E+04
  27400,2021-06-22T21:54:47.806+02:00,   0.109E-01, 536.64663,   0.765E+04
  27500,2021-06-22T21:54:55.004+02:00,   0.133E-01, 537.81420,   0.768E+04
  27600,2021-06-22T21:55:01.558+02:00,   0.102E-01, 539.06941,   0.770E+04
  27700,2021-06-22T21:55:08.102+02:00,   0.955E-02, 540.18474,   0.773E+04
  27800,2021-06-22T21:55:14.762+02:00,   0.951E-02, 541.35478,   0.775E+04
  27900,2021-06-22T21:55:21.267+02:00,   0.114E-01, 542.49870,   0.778E+04
  28000,2021-06-22T21:55:27.757+02:00,   0.117E-01, 543.73100,   0.780E+04
  28100,2021-06-22T21:55:34.184+02:00,   0.128E-01, 544.88544,   0.783E+04
  28200,2021-06-22T21:55:40.465+02:00,   0.111E-01, 545.98589,   0.785E+04
  28300,2021-06-22T21:55:47.891+02:00,   0.117E-01, 547.20495,   0.788E+04
  28400,2021-06-22T21:55:54.128+02:00,   0.128E-01, 548.39753,   0.791E+04
  28500,2021-06-22T21:56:01.069+02:00,   0.133E-01, 549.61836,   0.793E+04
  28600,2021-06-22T21:56:07.413+02:00,   0.999E-02, 550.79840,   0.796E+04
  28700,2021-06-22T21:56:14.008+02:00,   0.958E-02, 551.89703,   0.798E+04
  28800,2021-06-22T21:56:20.549+02:00,   0.123E-01, 553.04307,   0.801E+04
  28900,2021-06-22T21:56:26.934+02:00,   0.113E-01, 554.20556,   0.803E+04
  29000,2021-06-22T21:56:34.243+02:00,   0.101E-01, 555.24955,   0.806E+04
  29100,2021-06-22T21:56:41.638+02:00,   0.863E-02, 556.36398,   0.809E+04
  29200,2021-06-22T21:56:48.734+02:00,   0.119E-01, 557.47464,   0.811E+04
  29300,2021-06-22T21:56:56.028+02:00,   0.108E-01, 558.59522,   0.814E+04
  29400,2021-06-22T21:57:02.504+02:00,   0.118E-01, 559.66596,   0.816E+04
  29500,2021-06-22T21:57:09.000+02:00,   0.119E-01, 560.81081,   0.819E+04
  29600,2021-06-22T21:57:15.362+02:00,   0.128E-01, 561.99485,   0.821E+04
  29700,2021-06-22T21:57:21.878+02:00,   0.114E-01, 563.12371,   0.824E+04
  29800,2021-06-22T21:57:28.358+02:00,   0.119E-01, 564.26458,   0.826E+04
  29900,2021-06-22T21:57:34.858+02:00,   0.121E-01, 565.38119,   0.829E+04
  30000,2021-06-22T21:57:41.747+02:00,   0.126E-01, 566.55338,   0.832E+04
  30100,2021-06-22T21:57:48.165+02:00,   0.116E-01, 567.63025,   0.834E+04
  30200,2021-06-22T21:57:54.676+02:00,   0.123E-01, 568.76797,   0.837E+04
  30300,2021-06-22T21:58:02.027+02:00,   0.104E-01, 569.91115,   0.839E+04
  30400,2021-06-22T21:58:09.839+02:00,   0.104E-01, 570.98765,   0.842E+04
  30500,2021-06-22T21:58:16.369+02:00,   0.103E-01, 572.08208,   0.845E+04
  30600,2021-06-22T21:58:22.875+02:00,   0.997E-02, 573.14728,   0.847E+04
  30700,2021-06-22T21:58:29.468+02:00,   0.121E-01, 574.28597,   0.850E+04
  30800,2021-06-22T21:58:36.810+02:00,   0.123E-01, 575.31834,   0.852E+04
  30900,2021-06-22T21:58:43.453+02:00,   0.109E-01, 576.43789,   0.855E+04
  31000,2021-06-22T21:58:50.655+02:00,   0.108E-01, 577.53350,   0.858E+04
  31100,2021-06-22T21:58:58.827+02:00,   0.101E-01, 578.63948,   0.861E+04
  31200,2021-06-22T21:59:06.149+02:00,   0.135E-01, 579.78591,   0.863E+04
  31300,2021-06-22T21:59:14.011+02:00,   0.124E-01, 580.97395,   0.866E+04
  31400,2021-06-22T21:59:20.948+02:00,   0.113E-01, 582.16928,   0.869E+04
  31500,2021-06-22T21:59:28.812+02:00,   0.110E-01, 583.33725,   0.872E+04
  31600,2021-06-22T21:59:36.277+02:00,   0.110E-01, 584.47814,   0.874E+04
  31700,2021-06-22T21:59:43.422+02:00,   0.986E-02, 585.57072,   0.877E+04
  31800,2021-06-22T21:59:51.497+02:00,   0.131E-01, 586.78752,   0.880E+04
  31900,2021-06-22T22:00:00.771+02:00,   0.117E-01, 588.04585,   0.883E+04
  32000,2021-06-22T22:00:08.836+02:00,   0.125E-01, 589.20466,   0.886E+04
  32100,2021-06-22T22:00:16.826+02:00,   0.130E-01, 590.40820,   0.889E+04
  32200,2021-06-22T22:00:23.065+02:00,   0.109E-01, 591.53095,   0.891E+04
  32300,2021-06-22T22:00:29.956+02:00,   0.116E-01, 592.62055,   0.894E+04
  32400,2021-06-22T22:00:36.926+02:00,   0.120E-01, 593.69199,   0.897E+04
  32500,2021-06-22T22:00:45.382+02:00,   0.124E-01, 594.85377,   0.900E+04
  32600,2021-06-22T22:00:53.000+02:00,   0.111E-01, 595.87120,   0.902E+04
  32700,2021-06-22T22:01:00.418+02:00,   0.108E-01, 596.98458,   0.905E+04
  32800,2021-06-22T22:01:08.017+02:00,   0.932E-02, 598.09969,   0.908E+04
  32900,2021-06-22T22:01:15.604+02:00,   0.902E-02, 599.15429,   0.911E+04
  32984,2021-06-22T22:01:20.934+02:00,   0.815E-02, 600.00000,   0.913E+04
